<?xml version="1.0" encoding="UTF-8" standalone="yes"?>
<kml xmlns="http://www.opengis.net/kml/2.2" xmlns:atom="http://www.w3.org/2005/Atom" xmlns:gx="http://www.google.com/kml/ext/2.2" xmlns:xal="urn:oasis:names:tc:ciq:xsdschema:xAL:2.0">
    <Document>
        <name>DRI Route Layers</name>
        <Style id="styleId100">
            <LineStyle>
                <color>ff00ffff</color>
                <width>1.5</width>
            </LineStyle>
        </Style>
        <Placemark id="placemark0">
            <styleUrl>#styleId100</styleUrl>
            <LineString>
                <altitudeMode>clampToGround</altitudeMode>
                <coordinates>-92.01455,30.22686 -92.01451,30.22681 -92.01451,30.22678 -92.01445,30.22673 -92.01445,30.22667 -92.01439,30.22663 -92.01439,30.22662 -92.01437,30.2266 -92.01437,30.22659 -92.01435,30.22658 -92.01435,30.22654 -92.01433,30.22653 -92.01433,30.22649 -92.01413,30.22617 -92.01413,30.22614 -92.01411,30.22612 -92.01411,30.22609 -92.01413,30.22606 -92.01413,30.22603 -92.01419,30.22598 -92.01477,30.22577 -92.01479,30.22575 -92.01483,30.22575 -92.01483,30.22574 -92.01487,30.22574 -92.01487,30.22573 -92.01561,30.22543 -92.01563,30.22543 -92.01565,30.22542 -92.01565,30.22541 -92.01571,30.22532 -92.01571,30.22527 -92.01515,30.2248 -92.01457,30.22442 -92.01457,30.22434 -92.01895,30.21756 -92.01895,30.21751 -92.01897,30.21748 -92.01899,30.21747 -92.01901,30.21747 -92.01903,30.21745 -92.01903,30.21742 -92.01917,30.21721 -92.02165,30.21474 -92.02165,30.21471 -92.02167,30.21471 -92.02167,30.2147 -92.02169,30.21469 -92.02169,30.21468 -92.02179,30.21459 -92.02181,30.21453 -92.02539,30.2124 -92.02539,30.21239 -92.02545,30.21236 -92.02545,30.21235 -92.03755,30.20788 -92.03755,30.20787 -92.04837,30.20362 -92.04839,30.20362 -92.04841,30.20361 -92.04843,30.20361 -92.04843,30.2036 -92.04845,30.20359 -92.04851,30.20358 -92.05193,30.20248 -92.05197,30.20248 -92.05197,30.20247 -92.05455,30.20087 -92.05777,30.19509 -92.05779,30.19503 -92.05789,30.19492 -92.05789,30.19489 -92.05791,30.19489 -92.05791,30.19485 -92.05795,30.19481 -92.05801,30.19469 -92.06353,30.18908 -92.06353,30.18907 -92.06355,30.18906 -92.06355,30.18905 -92.06357,30.18903 -92.06357,30.18901 -92.07111,30.18163 -92.07115,30.18162 -92.07115,30.1816 -92.07117,30.18159 -92.07117,30.18157 -92.07415,30.17858 -92.07419,30.17856 -92.07419,30.17853 -92.07737,30.17538 -92.07741,30.17537 -92.07741,30.17534 -92.07743,30.17534 -92.07743,30.17533 -92.07747,30.17531 -92.07747,30.1753 -92.07753,30.17522 -92.07757,30.17513 -92.07757,30.17508 -92.07705,30.17456 -92.07657,30.17423 -92.07655,30.1742 -92.07649,30.17418 -92.07649,30.17415 -92.07647,30.17413 -92.07647,30.17406 -92.07675,30.17371 -92.07673,30.17366 -92.07675,30.17362 -92.07661,30.17354 -92.07655,30.17354 -92.07649,30.17353 -92.07599,30.17353 -92.07597,30.17354 -92.07547,30.17356 -92.07547,30.17357 -92.07541,30.17357 -92.07543,30.17356 -92.07439,30.17366 -92.07435,30.17369 -92.07425,30.17372 -92.07413,30.17368 -92.07321,30.17292 -92.07321,30.17289 -92.07317,30.17287 -92.07295,30.17244 -92.07289,30.17135 -92.07245,30.17068 -92.07247,30.17043 -92.07337,30.16967 -92.07343,30.16963 -92.07347,30.16956 -92.07347,30.16947 -92.07289,30.16894 -92.07237,30.16881 -92.07203,30.16888 -92.07033,30.17022 -92.07033,30.17024 -92.07029,30.17024 -92.07023,30.17022 -92.06883,30.16906 -92.06877,30.16904 -92.06877,30.16903 -92.06871,30.16901 -92.06859,30.16902 -92.06839,30.16915 -92.06627,30.17099 -92.06625,30.171 -92.06625,30.17101 -92.06623,30.17101 -92.06621,30.17103 -92.06621,30.17104 -92.06619,30.17105 -92.06613,30.17105 -92.04863,30.1566 -92.04863,30.15658 -92.04075,30.15011 -92.04075,30.15006 -92.04079,30.14997 -92.04243,30.1485 -92.04245,30.14846 -92.04257,30.1484 -92.04265,30.14841 -92.04521,30.15053 -92.04625,30.15143 -92.04637,30.1515 -92.04637,30.15152 -92.04643,30.15155 -92.04643,30.15156 -92.04999,30.15456 -92.04999,30.15459 -92.05003,30.15462 -92.05005,30.15465 -92.05005,30.15469 -92.04889,30.15585 -92.04875,30.15596 -92.04875,30.15599 -92.04869,30.15603 -92.04869,30.15605 -92.04865,30.15607 -92.04865,30.15608 -92.04863,30.15609 -92.04863,30.15611 -92.03675,30.1668 -92.03675,30.16681 -92.03673,30.16681 -92.03673,30.16683 -92.03665,30.16686 -92.03659,30.16692 -92.03243,30.17006 -92.02995,30.17264 -92.02989,30.17268 -92.02989,30.1727 -92.02983,30.17273 -92.02977,30.17273 -92.02971,30.1727 -92.02969,30.17267 -92.02965,30.17265 -92.02963,30.17262 -92.02957,30.17258 -92.02957,30.17256 -92.02953,30.17254 -92.02951,30.17254 -92.02949,30.17252 -92.02945,30.17251 -92.02943,30.17247 -92.02109,30.16563 -92.02105,30.16562 -92.02099,30.16557 -92.02095,30.16556 -92.02077,30.16546 -92.02071,30.16544 -92.02061,30.16545 -92.02051,30.16552 -92.02043,30.16565 -92.01877,30.171 -92.01801,30.17189 -92.01347,30.17377 -92.01257,30.17384 -92.01065,30.17352 -92.00923,30.17376 -92.00453,30.17669 -92.00407,30.1767 -92.00361,30.17666 -92.00345,30.17666 -92.00331,30.17665 -92.00261,30.1767 -92.00261,30.17671 -92.00255,30.17672 -92.00249,30.17676 -92.00243,30.17684 -92.00247,30.17712 -92.00401,30.18031 -92.01539,30.1903 -92.01581,30.19294 -92.01579,30.19296 -92.01579,30.19298 -92.01581,30.19301 -92.01637,30.19907 -92.01187,30.20682 -92.01187,30.20686 -92.01185,30.20688 -92.01185,30.20689 -92.01181,30.20693 -92.01181,30.20697 -92.00595,30.21641 -92.00595,30.21653 -92.00597,30.21658 -92.00953,30.219 -92.00955,30.219 -92.00955,30.21901 -92.01015,30.2194 -92.01033,30.21948 -92.01033,30.21949 -92.01043,30.21955 -92.01045,30.21958 -92.01057,30.21967 -92.01239,30.22284 -92.01413,30.22424 -92.01421,30.22436 -92.01421,30.22439 -92.01423,30.2244 -92.01423,30.22441 -92.01431,30.22452 -92.01439,30.22472 -92.01445,30.22479 -92.01451,30.22494 -92.01457,30.22502 -92.01459,30.22509 -92.01469,30.22524 -92.01471,30.22532 -92.01477,30.22538 -92.01489,30.22566 -92.01477,30.22574 -92.01433,30.2259 -92.01427,30.22597 -92.01427,30.22605 -92.01439,30.22624 -92.01439,30.22627 -92.01445,30.22635 -92.01445,30.2264 -92.01451,30.2265 -92.01451,30.22653 -92.01453,30.22654 -92.01453,30.22657 -92.01451,30.22658 -92.01457,30.22667 -92.01457,30.22669 -92.01465,30.22677 -92.01465,30.2268 -92.01471,30.22686</coordinates>
            </LineString>
        </Placemark>
        <Placemark id="placemark1">
            <styleUrl>#styleId100</styleUrl>
            <LineString>
                <altitudeMode>clampToGround</altitudeMode>
                <coordinates>-92.01417,30.22635 -92.01419,30.22634 -92.01419,30.22628 -92.01415,30.2262 -92.01413,30.22619 -92.01413,30.22617 -92.01411,30.22615 -92.01411,30.22609 -92.01419,30.22601 -92.01477,30.2257 -92.01487,30.22571 -92.01489,30.22572 -92.01571,30.22725 -92.01571,30.22727 -92.01573,30.22729 -92.01573,30.22734 -92.01619,30.22813 -92.01619,30.22815 -92.01629,30.2283 -92.01631,30.22837 -92.01651,30.22869 -92.01653,30.22876 -92.01663,30.22892 -92.01663,30.22895 -92.01665,30.22897 -92.01673,30.22899 -92.01779,30.22852 -92.01855,30.22807 -92.01859,30.22802 -92.01859,30.22801 -92.01863,30.228 -92.01869,30.22794 -92.02019,30.22705 -92.02263,30.22701 -92.02275,30.22703 -92.02275,30.22704 -92.02277,30.22704 -92.02281,30.22706 -92.02281,30.22709 -92.02283,30.22712 -92.02283,30.22721 -92.02281,30.22725 -92.02281,30.22737 -92.02283,30.22739 -92.02283,30.22748 -92.02285,30.22753 -92.02285,30.23044 -92.02287,30.23046 -92.02287,30.23164 -92.02289,30.23167 -92.02289,30.23171 -92.02287,30.23172 -92.02287,30.23176 -92.02289,30.23179 -92.02289,30.23182 -92.02291,30.23185 -92.02301,30.23189 -92.02417,30.23187 -92.02417,30.23186 -92.02473,30.23189 -92.02533,30.23211 -92.03199,30.23238 -92.03199,30.23239 -92.03209,30.23238 -92.04965,30.23245 -92.04975,30.2324 -92.04979,30.2323 -92.04979,30.23005 -92.03625,30.23246 -92.04973,30.23246 -92.04975,30.23245 -92.04979,30.23238 -92.04981,30.22636 -92.04979,30.22633 -92.04979,30.2263 -92.04975,30.22629 -92.04965,30.2263 -92.04709,30.22759 -92.04703,30.22759 -92.04699,30.22758 -92.04695,30.22755 -92.04693,30.2275 -92.04683,30.22669 -92.04225,30.21968 -92.04155,30.2189 -92.04155,30.21888 -92.04153,30.21887 -92.04153,30.21886 -92.04149,30.21883 -92.04149,30.21872 -92.04493,30.21639 -92.04501,30.21639 -92.04505,30.21644 -92.04509,30.21646 -92.04509,30.21649 -92.04515,30.21655 -92.04515,30.21657 -92.04517,30.2166 -92.04515,30.21662 -92.04515,30.21665 -92.04503,30.21671 -92.04497,30.21678 -92.04497,30.21681 -92.04509,30.21698 -92.04535,30.21725 -92.04541,30.21726 -92.04561,30.21717 -92.04567,30.21713 -92.04567,30.21711 -92.04569,30.21711 -92.04589,30.21697 -92.04593,30.21696 -92.04593,30.21694 -92.04693,30.21624 -92.04699,30.21613 -92.04695,30.21602 -92.04695,30.21596 -92.04697,30.21591 -92.04713,30.21581 -92.04719,30.21579 -92.04721,30.21577 -92.04731,30.21574 -92.04741,30.21581 -92.04915,30.21809 -92.04915,30.21811 -92.04917,30.21814 -92.04921,30.21817 -92.04921,30.21819 -92.04927,30.21824 -92.04939,30.21827 -92.04973,30.21811 -92.05043,30.21762 -92.05043,30.21758 -92.04971,30.21671 -92.04963,30.21668 -92.04953,30.2167 -92.04867,30.21716 -92.04865,30.21716 -92.04863,30.21717 -92.04859,30.21716 -92.04715,30.21496 -92.04719,30.21487 -92.04999,30.21284 -92.05189,30.21048 -92.05647,30.20741 -92.05649,30.20741 -92.06993,30.19846 -92.06999,30.19844 -92.07001,30.19841 -92.07007,30.1984 -92.07007,30.19839 -92.07009,30.19839 -92.07011,30.1984 -92.07083,30.19799 -92.07547,30.19607 -92.07641,30.19606 -92.07649,30.1961 -92.07647,30.19823 -92.07641,30.19827 -92.07629,30.19827 -92.07621,30.19826 -92.07557,30.19826 -92.07551,30.19825 -92.07541,30.19825 -92.07535,30.19821 -92.07499,30.17879 -92.07495,30.17873 -92.07495,30.17869 -92.07493,30.17867 -92.07493,30.17865 -92.07491,30.17865 -92.07491,30.17861 -92.07489,30.17859 -92.07489,30.17854 -92.07469,30.17816 -92.06993,30.17419 -92.06993,30.17415 -92.07263,30.17177 -92.07285,30.17174 -92.07289,30.17177 -92.07293,30.17185 -92.07291,30.17257 -92.07305,30.17283 -92.07307,30.17285 -92.07307,30.17288 -92.07309,30.17292 -92.07411,30.17373 -92.07423,30.17375 -92.07549,30.17359 -92.07669,30.17361 -92.07669,30.17364 -92.07671,30.17368 -92.07667,30.17379 -92.07637,30.17408 -92.07637,30.1741 -92.07635,30.17413 -92.07637,30.17424 -92.07727,30.17501 -92.07727,30.17503 -92.07729,30.17503 -92.07729,30.17506 -92.07731,30.1751 -92.07721,30.17526 -92.07457,30.17787 -92.07457,30.1779 -92.06357,30.18872 -92.06357,30.18873 -92.05803,30.19431 -92.05435,30.20091 -92.05267,30.20207 -92.04093,30.20562 -92.04091,30.20565 -92.04085,30.20567 -92.04085,30.20568 -92.04081,30.20568 -92.04081,30.20569 -92.04077,30.2057 -92.03601,30.20849 -92.02223,30.21395 -92.01973,30.21644 -92.01967,30.21652 -92.01889,30.21736 -92.01845,30.21805 -92.01845,30.21809 -92.01837,30.21818 -92.01837,30.21819 -92.01833,30.21821 -92.01833,30.21822 -92.01831,30.21824 -92.01831,30.21827 -92.01741,30.21961 -92.01741,30.21965 -92.01735,30.21974 -92.01557,30.22263 -92.01557,30.22265 -92.01555,30.22266 -92.01555,30.22268 -92.01493,30.22361 -92.01491,30.22362 -92.01491,30.22364 -92.01489,30.22366 -92.01489,30.22368 -92.01483,30.22373 -92.01483,30.22378 -92.01433,30.22451 -92.01433,30.22464 -92.01483,30.22556 -92.01483,30.2256 -92.01487,30.22567 -92.01483,30.22572 -92.01413,30.226 -92.01407,30.22607 -92.01407,30.22616 -92.01413,30.22625 -92.01413,30.22629 -92.01419,30.22637 -92.01423,30.22638 -92.01423,30.22637 -92.01421,30.22637</coordinates>
            </LineString>
        </Placemark>
        <Placemark id="placemark2">
            <styleUrl>#styleId100</styleUrl>
            <LineString>
                <altitudeMode>clampToGround</altitudeMode>
                <coordinates>-92.01453,30.22657 -92.01457,30.22659 -92.01471,30.22686 -92.01471,30.2269 -92.01475,30.22694 -92.01491,30.22728 -92.01509,30.22752 -92.01507,30.22759 -92.01471,30.22773 -92.01471,30.22774 -92.01259,30.22859 -92.01253,30.22859 -92.01247,30.22856 -92.01039,30.22477 -92.01039,30.22474 -92.01035,30.22469 -92.01035,30.22467 -92.01033,30.22466 -92.01033,30.22463 -92.00903,30.22217 -92.00897,30.22216 -92.00891,30.22216 -92.00833,30.22241 -92.00827,30.22243 -92.00827,30.22244 -92.00545,30.22375 -92.00267,30.22668 -92.00261,30.22671 -92.00261,30.22672 -92.00021,30.2292 -91.99993,30.22944 -91.99987,30.22951 -91.99985,30.22951 -91.99985,30.22952 -91.99983,30.22952 -91.99983,30.22954 -91.99981,30.22955 -91.99977,30.22955 -91.99965,30.22951 -91.99521,30.22638 -91.99521,30.22636 -91.99519,30.22635 -91.99519,30.22634 -91.99517,30.22633 -91.99517,30.22632 -91.99509,30.22627 -91.99505,30.22626 -91.99493,30.22628 -91.99417,30.22706 -91.99365,30.22804 -91.99293,30.23283 -91.99281,30.23309 -91.99275,30.23315 -91.99271,30.23325 -91.99267,30.2333 -91.99267,30.23332 -91.99257,30.23335 -91.99249,30.23335 -91.98801,30.2328 -91.98797,30.23274 -91.98797,30.2327 -91.98799,30.23265 -91.98799,30.23259 -91.98911,30.23002 -91.98915,30.23 -91.98915,30.22999 -91.98917,30.22998 -91.98921,30.22998 -91.98947,30.23008 -91.98955,30.23008 -91.98957,30.23007 -91.98961,30.23007 -91.98979,30.23001 -91.98991,30.23003 -91.98999,30.2301 -91.99001,30.23015 -91.99025,30.23031 -91.99037,30.23031 -91.99037,30.2303 -91.99045,30.23028 -91.99045,30.23026 -91.99047,30.23026 -91.99051,30.23021 -91.99059,30.22931 -91.99061,30.22926 -91.99063,30.22898 -91.99069,30.22882 -91.99069,30.22871 -91.99079,30.22854 -91.99095,30.22847 -91.99365,30.22876 -91.99369,30.22871 -91.99417,30.22716 -91.99499,30.22628 -91.99501,30.22623 -91.99497,30.22613 -91.99219,30.22403 -91.99219,30.224 -91.99227,30.22388 -91.99431,30.22203 -91.99437,30.22194 -91.99507,30.22133 -91.99507,30.22132 -91.99523,30.2214 -91.99777,30.22332 -91.99803,30.22348 -91.99803,30.2235 -91.99817,30.22356 -91.99829,30.22355 -91.99843,30.22347 -92.00119,30.22074 -92.00123,30.22072 -92.00131,30.22073 -92.00133,30.22076 -92.00535,30.22379 -92.00535,30.22381 -92.00537,30.22383 -92.00537,30.2239 -92.00273,30.22663 -92.00267,30.22665 -92.00267,30.22667 -92.00017,30.22922 -91.99997,30.22937 -91.99997,30.22941 -91.99993,30.22943 -91.99983,30.22957 -91.99977,30.22961 -91.99965,30.22987 -91.99951,30.23111 -91.99945,30.23131 -91.99901,30.23413 -91.99903,30.23417 -91.99913,30.23422 -92.00179,30.23453 -92.00179,30.23456 -92.00181,30.23456 -92.00183,30.23457 -92.00219,30.23464 -92.00223,30.23468 -92.00219,30.23504 -92.00215,30.23512 -92.00201,30.23594 -92.00197,30.23604 -92.00165,30.23797 -92.00087,30.24113 -92.00039,30.24547 -92.00055,30.2456 -92.00145,30.24562 -92.00217,30.24542 -92.00507,30.24387 -92.00613,30.24383 -92.00623,30.24384 -92.00623,30.24385 -92.00631,30.24392 -92.00551,30.25056 -92.00535,30.25103 -92.00529,30.25108 -92.00525,30.25109 -92.00519,30.25115 -92.00519,30.25118 -92.00521,30.2512 -92.00521,30.25121 -92.00525,30.25123 -92.00525,30.25124 -92.00527,30.25125 -92.00527,30.25126 -92.00529,30.25129 -92.00543,30.25567 -92.00809,30.26464 -92.00789,30.27731 -92.00791,30.27734 -92.00801,30.27737 -92.01347,30.27756 -92.01353,30.27754 -92.01355,30.27751 -92.01355,30.27692 -92.01389,30.27642 -92.01423,30.27623 -92.01477,30.27617 -92.01573,30.27628 -92.01581,30.27625 -92.01587,30.27615 -92.01605,30.27348 -92.01607,30.27346 -92.01607,30.27345 -92.01609,30.27343 -92.01619,30.27341 -92.01711,30.27355 -92.01715,30.27359 -92.01721,30.27376 -92.01735,30.27385 -92.01783,30.274 -92.01797,30.27417 -92.02397,30.29482 -92.02395,30.29489 -92.02365,30.29522 -92.02365,30.29527 -92.02363,30.2953 -92.02363,30.29533 -92.02361,30.29535 -92.02361,30.29538 -92.02359,30.2954 -92.02359,30.29543 -92.02351,30.29548 -92.02321,30.29548 -92.02307,30.29547 -92.02279,30.29547 -92.02263,30.29546 -92.02207,30.29546 -92.02189,30.29545 -92.02117,30.29545 -92.02099,30.29544 -92.02079,30.29544 -92.02007,30.2954 -92.01991,30.2954 -92.01941,30.29537 -92.01925,30.29537 -92.01909,30.29535 -92.01891,30.29535 -92.01429,30.29511 -92.01407,30.29511 -92.01283,30.29503 -92.01261,30.29503 -92.01067,30.29493 -92.01045,30.29493 -92.00867,30.29483 -92.00851,30.29483 -92.00793,30.29479 -92.00771,30.29479 -92.00769,30.29478 -92.00767,30.29479 -92.00749,30.29479 -92.00741,30.29474 -92.00737,30.29469 -92.00689,30.28257 -92.00775,30.28088 -92.00815,30.26433 -92.00569,30.25597 -92.00567,30.25594 -92.00567,30.2559 -92.00563,30.25582 -92.00563,30.25573 -92.00569,30.25567 -92.00599,30.25565 -92.01425,30.25605 -92.01425,30.25603 -92.01433,30.25595 -92.01373,30.2527 -92.01363,30.25237 -92.01363,30.25231 -92.01361,30.25228 -92.01361,30.25223 -92.01355,30.25206 -92.01327,30.25077 -92.01323,30.25069 -92.01323,30.25053 -92.01297,30.24967 -92.01297,30.24958 -92.01291,30.24939 -92.01291,30.24931 -92.01285,30.24918 -92.01285,30.24905 -92.01279,30.24896 -92.01279,30.24891 -92.01271,30.24882 -92.01241,30.24878 -92.01151,30.24879 -92.01135,30.24878 -92.01097,30.24878 -92.01077,30.24877 -92.01057,30.24877 -92.00601,30.24818 -92.00595,30.24818 -92.00595,30.24817 -92.00591,30.24812 -92.00789,30.23692 -92.00853,30.23415 -92.00867,30.23333 -92.00873,30.23313 -92.00879,30.23268 -92.00881,30.23265 -92.00881,30.23262 -92.00885,30.23252 -92.00885,30.23237 -92.00911,30.23106 -92.00919,30.23012 -92.00931,30.23002 -92.01139,30.22921 -92.01143,30.22918 -92.01149,30.22918 -92.01335,30.22837 -92.01339,30.22829 -92.01339,30.22823 -92.01259,30.22679 -92.01259,30.2267 -92.01267,30.22663 -92.01367,30.22622 -92.01369,30.2262 -92.01421,30.22603 -92.01425,30.22604 -92.01441,30.22628 -92.01441,30.2263 -92.01443,30.22632 -92.01443,30.22633 -92.01445,30.22634 -92.01461,30.22666</coordinates>
            </LineString>
        </Placemark>
        <Placemark id="placemark3">
            <styleUrl>#styleId100</styleUrl>
            <LineString>
                <altitudeMode>clampToGround</altitudeMode>
                <coordinates>-92.01491,30.22725 -92.01507,30.22745 -92.01507,30.22749 -92.01503,30.22756 -92.01493,30.22758 -92.01483,30.22755 -92.01483,30.22752 -92.01441,30.2267 -92.01441,30.22668 -92.01439,30.22666 -92.01437,30.22658 -92.01433,30.22653 -92.01431,30.22646 -92.01425,30.2264 -92.01419,30.22627 -92.01411,30.22614 -92.01411,30.22612 -92.01409,30.2261 -92.01413,30.22604 -92.01477,30.22579 -92.01477,30.22578 -92.01479,30.22578 -92.01479,30.22577 -92.01483,30.22577 -92.01487,30.22574 -92.01489,30.22574 -92.01493,30.2257 -92.01565,30.22541 -92.01597,30.22503 -92.01651,30.22419 -92.01651,30.22418 -92.01867,30.22141 -92.01869,30.22141 -92.01869,30.22138 -92.01913,30.22089 -92.01981,30.21934 -92.02063,30.21865 -92.02063,30.21864 -92.02065,30.21864 -92.02069,30.21862 -92.02083,30.21869 -92.02307,30.22044 -92.02313,30.22048 -92.02313,30.22049 -92.02315,30.2205 -92.02315,30.22051 -92.02317,30.22051 -92.02629,30.22315 -92.02817,30.22606 -92.02815,30.2261 -92.02647,30.22697 -92.02497,30.22719 -92.02491,30.22729 -92.02491,30.23157 -92.02493,30.2316 -92.02493,30.23163 -92.02495,30.23166 -92.02495,30.23178 -92.02487,30.23183 -92.02469,30.23184 -92.02459,30.23183 -92.02133,30.23211 -92.01771,30.23335 -92.01675,30.23343 -92.01667,30.23342 -92.01663,30.23342 -92.01659,30.23341 -92.01657,30.23341 -92.01653,30.23343 -92.01647,30.23352 -92.01649,30.23625 -92.01651,30.23629 -92.01651,30.23635 -92.01649,30.2364 -92.01651,30.23705 -92.01657,30.2371 -92.01963,30.23755 -92.01983,30.23786 -92.01989,30.23799 -92.01993,30.23803 -92.01993,30.23807 -92.01995,30.23808 -92.01935,30.24099 -92.01911,30.24136 -92.01911,30.24139 -92.01913,30.24143 -92.01941,30.24149 -92.02339,30.24196 -92.02339,30.24195 -92.02397,30.24202 -92.02397,30.24203 -92.02795,30.24251 -92.02797,30.24252 -92.03235,30.24308 -92.03235,30.2431 -92.03239,30.24312 -92.03241,30.24315 -92.03253,30.24408 -92.03511,30.24943 -92.03509,30.24948 -92.03491,30.24966 -92.03493,30.24997 -92.03499,30.25017 -92.03499,30.25053 -92.03487,30.25065 -92.03471,30.25069 -92.03459,30.25069 -92.02069,30.24891 -92.02061,30.24891 -92.02059,30.2489 -92.02057,30.2489 -92.02047,30.24894 -92.02043,30.24905 -92.01999,30.25186 -92.02005,30.25192 -92.02165,30.25217 -92.02165,30.25219 -92.02169,30.25222 -92.02111,30.25559 -92.02107,30.25564 -92.02085,30.25567 -92.02051,30.25564 -92.02039,30.25564 -92.01999,30.2556 -92.01985,30.2556 -92.01965,30.25558 -92.01955,30.25558 -92.01949,30.25557 -92.01941,30.25557 -92.01941,30.25556 -92.01923,30.25556 -92.01915,30.25555 -92.01883,30.25555 -92.01869,30.25554 -92.01855,30.25554 -92.01795,30.2555 -92.01779,30.2555 -92.01731,30.25547 -92.01715,30.25547 -92.01589,30.25538 -92.01573,30.25538 -92.01547,30.25536 -92.01535,30.25536 -92.01529,30.25535 -92.01517,30.25535 -92.01505,30.25527 -92.01431,30.25201 -92.01429,30.25199 -92.01387,30.25012 -92.01361,30.24907 -92.01367,30.24565 -92.01375,30.24551 -92.01445,30.24522 -92.01449,30.24516 -92.01451,30.24515 -92.01451,30.24512 -92.01455,30.24509 -92.01455,30.24507 -92.01457,30.24505 -92.01585,30.24515 -92.01639,30.24525 -92.01829,30.24518 -92.01835,30.24512 -92.01829,30.24486 -92.01825,30.24478 -92.01863,30.24285 -92.02005,30.23804 -92.02005,30.23799 -92.02013,30.23793 -92.02017,30.23792 -92.02311,30.23821 -92.02083,30.23803 -92.02267,30.23827 -92.02761,30.23849 -92.03225,30.23903 -92.03225,30.23904 -92.03227,30.23905 -92.03241,30.23904 -92.03245,30.23901 -92.03251,30.23883 -92.03251,30.23601 -92.03253,30.23597 -92.03263,30.23592 -92.03927,30.2356 -92.03933,30.23567 -92.03933,30.23575 -92.03931,30.2358 -92.03931,30.23586 -92.03929,30.23591 -92.03929,30.23596 -92.03927,30.23601 -92.03927,30.23606 -92.03923,30.23615 -92.03923,30.23637 -92.03921,30.23641 -92.03921,30.23647 -92.03919,30.23652 -92.03915,30.23681 -92.03911,30.2369 -92.03885,30.23705 -92.03879,30.23715 -92.03881,30.23734 -92.03937,30.23845 -92.03943,30.23882 -92.03987,30.24002 -92.03997,30.24065 -92.04097,30.243 -92.04097,30.24303 -92.04107,30.24307 -92.04147,30.24308 -92.04149,30.24307 -92.04157,30.24311 -92.04161,30.24318 -92.04161,30.24323 -92.04165,30.24331 -92.04165,30.24334 -92.04167,30.24335 -92.04167,30.24341 -92.04175,30.24356 -92.04175,30.24363 -92.04199,30.24426 -92.04199,30.24431 -92.04201,30.24431 -92.04201,30.24433 -92.04199,30.24435 -92.04199,30.24438 -92.03969,30.24461 -92.03491,30.24414 -92.03343,30.24427 -92.03339,30.24429 -92.03327,30.2443 -92.03327,30.24431 -92.03325,30.24431 -92.03297,30.24437 -92.03289,30.24437 -92.03277,30.24434 -92.03273,30.24429 -92.03249,30.24265 -92.03247,30.23243 -92.03221,30.23167 -92.02887,30.22681 -92.02885,30.22674 -92.02525,30.22178 -92.02359,30.22067 -92.02289,30.22013 -92.02085,30.21867 -92.02085,30.21866 -92.02073,30.21856 -92.02063,30.21857 -92.01973,30.21938 -92.01947,30.21983 -92.01925,30.22054 -92.01895,30.22102 -92.01889,30.22107 -92.01889,30.2211 -92.01885,30.22112 -92.01885,30.22113 -92.01575,30.22524 -92.01575,30.22525 -92.01573,30.22527 -92.01573,30.2253 -92.01509,30.2256 -92.01503,30.22561 -92.01503,30.22562 -92.01501,30.22562 -92.01501,30.22563 -92.01425,30.22591 -92.01425,30.22593 -92.01423,30.22597 -92.01425,30.22601 -92.01425,30.22605 -92.01435,30.22617 -92.01435,30.22619 -92.01439,30.22621 -92.01439,30.2263 -92.01451,30.22654 -92.01451,30.22656 -92.01453,30.22657 -92.01467,30.22681</coordinates>
            </LineString>
        </Placemark>
    </Document>
</kml>
