<?xml version="1.0" encoding="UTF-8" standalone="yes"?>
<kml xmlns="http://www.opengis.net/kml/2.2" xmlns:atom="http://www.w3.org/2005/Atom" xmlns:gx="http://www.google.com/kml/ext/2.2" xmlns:xal="urn:oasis:names:tc:ciq:xsdschema:xAL:2.0">
    <Document>
        <name>DRI Route Layers</name>
        <Style id="styleId30">
            <LineStyle>
                <color>ffffff00</color>
                <width>1.5</width>
            </LineStyle>
        </Style>
        <Placemark id="placemark0">
            <styleUrl>#styleId30</styleUrl>
            <LineString>
                <altitudeMode>clampToGround</altitudeMode>
                <coordinates>-92.0149,30.22762 -92.01407,30.22606 -92.01423,30.22599</coordinates>
            </LineString>
        </Placemark>
        <Placemark id="placemark1">
            <styleUrl>#styleId30</styleUrl>
            <LineString>
                <altitudeMode>clampToGround</altitudeMode>
                <coordinates>-92.03247,30.24305 -92.02412,30.24205 -92.02362,30.24388 -92.02354,30.24409 -92.0234,30.24424 -92.02326,30.24452 -92.02321,30.2448 -92.02319,30.24511 -92.0235,30.24572 -92.02456,30.24793 -92.02489,30.24833 -92.02517,30.24873 -92.02536,30.24899 -92.02556,30.24965 -92.03461,30.25071 -92.03487,30.25066 -92.03502,30.25047 -92.03505,30.25023 -92.03492,30.24995 -92.03492,30.24964 -92.03518,30.24945 -92.03508,30.24926 -92.03504,30.24918 -92.03502,30.24915 -92.03494,30.24902 -92.03493,30.249 -92.03467,30.24846 -92.0347,30.24827 -92.03467,30.2482 -92.03454,30.24796 -92.03442,30.24772 -92.03424,30.24732 -92.034,30.24688 -92.03392,30.24675 -92.0339,30.24671 -92.03352,30.24603 -92.03312,30.24526 -92.03299,30.24498 -92.0329,30.24479 -92.03275,30.24446 -92.03272,30.24437 -92.03269,30.2443 -92.03264,30.24415 -92.03261,30.24404 -92.03259,30.24394 -92.03256,30.24381 -92.03252,30.24358 -92.0325,30.24348 -92.03249,30.24338 -92.03248,30.24325 -92.03247,30.24305 -92.03247,30.24255 -92.03246,30.24196 -92.03245,30.24165 -92.03243,30.24039 -92.03243,30.2396 -92.03242,30.23904 -92.03246,30.23842 -92.03243,30.23826 -92.03242,30.23712 -92.03243,30.23605 -92.0324,30.23495 -92.0324,30.23494 -92.03239,30.23478 -92.03239,30.23432 -92.0324,30.23356 -92.03241,30.2333 -92.0324,30.23314 -92.0324,30.23293 -92.03239,30.2327 -92.03239,30.23253 -92.03237,30.23244 -92.03235,30.23234 -92.03233,30.23227 -92.03229,30.23213 -92.03223,30.23198 -92.03217,30.23184 -92.03209,30.2317 -92.03203,30.23159 -92.03193,30.23147 -92.03182,30.23131 -92.03168,30.23112 -92.03143,30.23074 -92.03116,30.23037 -92.03106,30.23023 -92.03053,30.22945 -92.03044,30.22932 -92.03029,30.22909 -92.03001,30.22868 -92.02984,30.22844 -92.02971,30.22824 -92.02925,30.22757 -92.02875,30.22682 -92.02835,30.2262 -92.02828,30.22611 -92.0272,30.22461 -92.02657,30.22364 -92.02629,30.2231 -92.02625,30.22297 -92.02615,30.22281 -92.02604,30.22263 -92.02595,30.22251 -92.02584,30.22237 -92.02575,30.22226 -92.02567,30.22218 -92.02565,30.22216 -92.02554,30.22208 -92.02536,30.22192 -92.02521,30.22181 -92.02497,30.22166 -92.02484,30.22159 -92.02466,30.22147 -92.02444,30.22134 -92.02431,30.22125 -92.02419,30.22118 -92.02405,30.22108 -92.0235,30.22067 -92.02277,30.22011 -92.02244,30.21989 -92.02203,30.21958 -92.02161,30.21926 -92.0213,30.21902 -92.02066,30.21853 -92.02054,30.21868 -92.01972,30.21943 -92.01954,30.21971 -92.01946,30.22005 -92.01942,30.2203 -92.01928,30.22058 -92.01904,30.22092 -92.01842,30.22164 -92.01746,30.22271 -92.01694,30.22344 -92.01655,30.22408 -92.01638,30.22435 -92.01571,30.22529 -92.0157,30.22536 -92.01562,30.22543 -92.01485,30.22574 -92.01423,30.22599 -92.01508,30.22754</coordinates>
            </LineString>
        </Placemark>
    </Document>
</kml>
