<?xml version="1.0" encoding="UTF-8" standalone="yes"?>
<kml xmlns="http://www.opengis.net/kml/2.2" xmlns:atom="http://www.w3.org/2005/Atom" xmlns:gx="http://www.google.com/kml/ext/2.2" xmlns:xal="urn:oasis:names:tc:ciq:xsdschema:xAL:2.0">
    <Document>
        <name>DRI Route Layers</name>
        <Style id="styleId45">
            <LineStyle>
                <color>ff3399ff</color>
                <width>1.5</width>
            </LineStyle>
        </Style>
        <Placemark id="placemark0">
            <styleUrl>#styleId45</styleUrl>
            <LineString>
                <altitudeMode>clampToGround</altitudeMode>
                <coordinates>-92.00878,30.23255 -92.00749,30.23229 -92.00784,30.23054 -92.00927,30.22999</coordinates>
            </LineString>
        </Placemark>
        <Placemark id="placemark1">
            <styleUrl>#styleId45</styleUrl>
            <LineString>
                <altitudeMode>clampToGround</altitudeMode>
                <coordinates>-92.01423,30.22599 -92.01508,30.22754 -92.0149,30.22762 -92.01407,30.22606 -92.01423,30.22599</coordinates>
            </LineString>
        </Placemark>
        <Placemark id="placemark2">
            <styleUrl>#styleId45</styleUrl>
            <LineString>
                <altitudeMode>clampToGround</altitudeMode>
                <coordinates>-92.01407,30.22606 -92.01264,30.22665 -92.01259,30.22673 -92.01261,30.22684 -92.01341,30.22827 -92.0149,30.22762</coordinates>
            </LineString>
        </Placemark>
        <Placemark id="placemark3">
            <styleUrl>#styleId45</styleUrl>
            <LineString>
                <altitudeMode>clampToGround</altitudeMode>
                <coordinates>-92.01341,30.22827 -92.01255,30.22864 -92.01169,30.22899 -92.00927,30.22999 -92.00918,30.23066 -92.00878,30.23255 -92.00703,30.24094 -92.00647,30.2436 -92.00644,30.24384 -92.00616,30.24614 -92.00591,30.24816 -92.00972,30.24875 -92.0108,30.24881 -92.01269,30.24878 -92.01283,30.24913 -92.01315,30.2502 -92.01375,30.25282 -92.01424,30.25514 -92.0143,30.25599 -92.00561,30.25577 -92.00816,30.26464 -92.00803,30.27307 -92.00797,30.27733 -92.01353,30.27752 -92.01353,30.27695 -92.01372,30.2766 -92.01404,30.27634 -92.01455,30.27612 -92.01506,30.27625 -92.01553,30.27631 -92.01588,30.27631 -92.01614,30.27345 -92.01715,30.27351 -92.01731,30.2738 -92.01789,30.27399 -92.01859,30.27574 -92.01966,30.2776 -92.02023,30.28009 -92.02089,30.28281 -92.02099,30.28323 -92.02126,30.28419 -92.02169,30.28563 -92.02184,30.28611 -92.02204,30.28672 -92.02232,30.28758 -92.02341,30.29083 -92.02405,30.29488 -92.02358,30.29551 -92.00743,30.29475 -92.00673,30.28734 -92.00673,30.28588 -92.00679,30.28286 -92.00701,30.28238 -92.0074,30.28165 -92.00774,30.28111 -92.00784,30.28038 -92.00797,30.27733</coordinates>
            </LineString>
        </Placemark>
        <Placemark id="placemark4">
            <styleUrl>#styleId45</styleUrl>
            <LineString>
                <altitudeMode>clampToGround</altitudeMode>
                <coordinates>-92.00703,30.24094 -92.01185,30.24158 -92.01157,30.2434 -92.01101,30.24426 -92.01021,30.24433 -92.00644,30.24384 -92.00514,30.24376 -92.00434,30.24408 -92.00314,30.24484 -92.00196,30.24554 -92.00155,30.2456 -92.00032,30.24561 -92.00013,30.24753</coordinates>
            </LineString>
        </Placemark>
        <Placemark id="placemark5">
            <styleUrl>#styleId45</styleUrl>
            <LineString>
                <altitudeMode>clampToGround</altitudeMode>
                <coordinates>-92.00014,30.24743 -91.99998,30.24949 -91.99976,30.25158 -91.99957,30.25378 -91.9996,30.25509 -91.9995,30.25749 -91.99942,30.25788 -91.99917,30.25853 -91.99888,30.25897 -91.99852,30.25945 -91.99827,30.25971 -91.99779,30.26007 -91.99737,30.26034 -91.99705,30.2605 -91.99691,30.2605 -91.99604,30.2609 -91.99491,30.26135 -91.99406,30.26177 -91.99345,30.26222 -91.993,30.26269 -91.99259,30.26328 -91.99236,30.26382 -91.99221,30.2643 -91.99217,30.26453 -91.99215,30.26572 -91.99249,30.27231 -92.00799,30.27301</coordinates>
            </LineString>
        </Placemark>
    </Document>
</kml>
