<?xml version="1.0" encoding="UTF-8" standalone="yes"?>
<kml xmlns="http://www.opengis.net/kml/2.2" xmlns:atom="http://www.w3.org/2005/Atom" xmlns:gx="http://www.google.com/kml/ext/2.2" xmlns:xal="urn:oasis:names:tc:ciq:xsdschema:xAL:2.0">
    <Document>
        <name>DRI Route Layers</name>
        <Style id="styleId55">
            <LineStyle>
                <color>ff87cbf1</color>
                <width>1.5</width>
            </LineStyle>
        </Style>
        <Placemark id="placemark0">
            <styleUrl>#styleId55</styleUrl>
            <LineString>
                <altitudeMode>clampToGround</altitudeMode>
                <coordinates>-92.01993,30.22404 -92.02082,30.22404 -92.0208,30.22044 -92.02081,30.22021 -92.02087,30.22003 -92.02097,30.21985 -92.02161,30.21926 -92.02203,30.21958 -92.02244,30.21989 -92.02277,30.22011 -92.0235,30.22067 -92.02448,30.21974 -92.0294,30.21471 -92.02689,30.21144</coordinates>
            </LineString>
        </Placemark>
        <Placemark id="placemark1">
            <styleUrl>#styleId55</styleUrl>
            <LineString>
                <altitudeMode>clampToGround</altitudeMode>
                <coordinates>-92.01505,30.22749 -92.01487,30.22757 -92.01404,30.22601 -92.01421,30.22595</coordinates>
            </LineString>
        </Placemark>
        <Placemark id="placemark2">
            <styleUrl>#styleId55</styleUrl>
            <LineString>
                <altitudeMode>clampToGround</altitudeMode>
                <coordinates>-92.00982,30.21046 -92.01026,30.21074 -92.01047,30.21088 -92.01068,30.21102 -92.01081,30.21111 -92.01109,30.21131 -92.01135,30.21151 -92.01161,30.21171 -92.01236,30.21227 -92.01281,30.21258 -92.01323,30.21288 -92.01603,30.21019 -92.01389,30.20853 -92.0149,30.20677 -92.01819,30.20284 -92.02001,30.20387 -92.02036,30.20408 -92.02048,30.20429 -92.02052,30.20446 -92.02064,30.20471 -92.02136,30.20523 -92.0217,30.20551 -92.02202,30.20589 -92.02208,30.20624 -92.02197,30.20655 -92.02167,30.20691 -92.02138,30.20708 -92.02104,30.20729 -92.02082,30.20753 -92.02059,30.20807 -92.02541,30.21221 -92.02601,30.21191 -92.02621,30.2118 -92.02689,30.21144 -92.02703,30.21137 -92.0272,30.21128 -92.02733,30.21122 -92.02774,30.21102 -92.02793,30.21094 -92.02815,30.21086 -92.02836,30.21078 -92.0287,30.21065 -92.02892,30.21058 -92.02914,30.21051 -92.02963,30.21037 -92.03044,30.21013 -92.03055,30.21009 -92.03109,30.20993 -92.03141,30.20984 -92.03169,30.20976 -92.03182,30.20974 -92.03214,30.20968 -92.03247,30.20962 -92.03258,30.20959 -92.03309,30.20942 -92.03333,30.20934 -92.03366,30.20923 -92.03383,30.20918 -92.03408,30.20911 -92.03426,30.20906 -92.0349,30.2089 -92.03527,30.20882 -92.03651,30.20834 -92.03669,30.20827 -92.03689,30.20816 -92.03697,30.20812 -92.03719,30.20801 -92.03738,30.20791 -92.03753,30.20782 -92.03799,30.20755 -92.03817,30.20744 -92.03842,30.20729 -92.03742,30.20647 -92.03291,30.20281 -92.0307,30.20193 -92.03001,30.20162 -92.02902,30.20086 -92.02749,30.19949 -92.02658,30.19907 -92.02574,30.19903 -92.0254,30.19916</coordinates>
            </LineString>
        </Placemark>
        <Placemark id="placemark3">
            <styleUrl>#styleId55</styleUrl>
            <LineString>
                <altitudeMode>clampToGround</altitudeMode>
                <coordinates>-91.99496,30.21108 -91.9946,30.212 -91.99438,30.21186 -91.99216,30.2119 -91.99211,30.21107 -91.99496,30.21108 -91.9951,30.2107 -91.99533,30.2102 -91.99566,30.2097 -91.99582,30.20954 -91.99691,30.20893 -91.99751,30.20869 -91.99799,30.20865 -91.99862,30.20871 -91.99981,30.20905 -92.00006,30.2091 -92.0003,30.20911 -92.00107,30.20923 -92.00176,30.20931 -92.00224,30.20929 -92.00259,30.20923 -92.00385,30.20873 -92.00472,30.20836 -92.00562,30.20814 -92.00635,30.20822 -92.00699,30.20842 -92.00765,30.2089 -92.00982,30.21046 -92.00949,30.21044 -92.00721,30.20881 -92.00665,30.20848 -92.00618,30.20836 -92.00576,30.20834 -92.00526,30.20838 -92.0036,30.20907 -92.00284,30.20935 -92.00207,30.2095 -92.00133,30.20943 -92.00041,30.20931 -92.00006,30.2091</coordinates>
            </LineString>
        </Placemark>
        <Placemark id="placemark4">
            <styleUrl>#styleId55</styleUrl>
            <LineString>
                <altitudeMode>clampToGround</altitudeMode>
                <coordinates>-92.01643,30.199 -92.01648,30.19882 -92.01648,30.19766 -92.01606,30.19436 -92.01585,30.19243 -92.01567,30.19095 -92.01545,30.19026 -92.01493,30.18936 -92.01416,30.18854 -92.01248,30.19082 -92.01206,30.19133 -92.01151,30.19201 -92.01055,30.19281 -92.00968,30.19346 -92.00807,30.19468 -92.00732,30.1952 -92.00632,30.1954 -92.00543,30.19571 -92.00511,30.19598 -92.00391,30.1973 -92.00283,30.19858 -92.00182,30.19973 -92.00025,30.2004 -92.0019,30.20367 -92.00266,30.20508 -92.00346,30.20643 -92.00383,30.20667 -92.00442,30.20696 -92.00515,30.20821</coordinates>
            </LineString>
        </Placemark>
        <Placemark id="placemark5">
            <styleUrl>#styleId55</styleUrl>
            <LineString>
                <altitudeMode>clampToGround</altitudeMode>
                <coordinates>-92.01644,30.19899 -92.0164,30.1991 -92.01627,30.19939 -92.01617,30.19956 -92.01541,30.20093 -92.01606,30.20126 -92.01636,30.20143 -92.01674,30.20161 -92.01694,30.20169 -92.01712,30.20172 -92.01738,30.20175 -92.01757,30.20177 -92.01784,30.20177 -92.01826,30.20171 -92.01861,30.20163 -92.01897,30.2015 -92.01934,30.20139 -92.01994,30.20118 -92.0204,30.20102 -92.0212,30.20071 -92.02215,30.20036 -92.02267,30.20016 -92.02319,30.19997 -92.02404,30.19964 -92.02487,30.19933 -92.0254,30.19915</coordinates>
            </LineString>
        </Placemark>
        <Placemark id="placemark6">
            <styleUrl>#styleId55</styleUrl>
            <LineString>
                <altitudeMode>clampToGround</altitudeMode>
                <coordinates>-92.01505,30.2275 -92.0142,30.22595 -92.01441,30.22587 -92.01483,30.2257 -92.01482,30.2257 -92.01575,30.22533 -92.01658,30.22404 -92.01695,30.22405 -92.01775,30.22405 -92.01878,30.22405 -92.0198,30.22404 -92.01995,30.22404</coordinates>
            </LineString>
        </Placemark>
    </Document>
</kml>
